Electoral District Number,Sur Name,First Name,Party,Vote Count
11001,Avery,Mike,NDP-New Democratic Party,1556
11001,Daughton,Emma,Green Party,710
11001,MacAulay,Lawrence,Liberal,10105
11001,McGuire,Larry,Independent,1101
11001,McMullin,Sid,Conservative,5661