Electoral District Number,Sur Name,First Name,Party,Vote Count
59003,Dalton,Marc,Conservative,12364
59003,Janzen,Scott Henry,Green Party,1654
59003,Julian,Peter,N.D.P.,17391
59003,Pynenburg,Mary,Liberal,13420