Electoral District Number,Sur Name,First Name,Party,Vote Count
59005,Baye,Ed,Green Party,1929
59005,Gray,Ron,Christian Heritage Party,935
59005,James,Malcolm,N.D.P.,10015
59005,O'Donnell,Dorothy-Jean,Marxist-Leninist,114
59005,Strahl,Chuck,Conservative,26842
59005,Sweeney,Myra,Liberal,8106