Electoral District Number,Sur Name,First Name,Party,Vote Count
59014,Biley,Barbara,Marxist-Leninist,94
59014,Fisher-Bradley,Jen,Canadian Action,113
59014,Lunney,James,Conservative,26102
59014,Miller,R. L. Dusty,Independent,920
59014,Stewart,Jim,Liberal,12023
59014,Uppal,Manjeet,N.D.P.,20335
59014,Wagner,Frank,Christian Heritage Party,136
59014,Wright,David,Green Party,3379