Electoral District Number,Sur Name,First Name,Party,Vote Count
59021,Dahlby,Lewis,Libertarian,309
59021,Froom,Scott,Green Party,1623
59021,Kingsbury,Jon,Liberal,13134
59021,Moore,James,Conservative,19961
59021,Sims,Mary Woo,N.D.P.,11196
59021,Watrich,Greg,Independent,2317