Electoral District Number,Sur Name,First Name,Party,Vote Count
59028,Rivet,Nina,Independent,932
59028,Kooner,Surjit,Liberal,6991
59028,Langlands,Nikolas,PC Party,221
59028,Matta,David,Conservative,9864
59028,Pielak,Kevin,Christian Heritage Party,411
59028,Priddy,Penny,N.D.P.,16307
59028,Whyte,Roy,Green Party,961