Electoral District Number,Sur Name,First Name,Party,Vote Count
59031,Bell,Catherine,N.D.P.,23552
59031,Duncan,John,Conservative,22936
59031,Mascall,Michael,Green Party,2715
59031,Mitchell,Jim,Liberal,7239