Electoral District Number,Sur Name,First Name,Party,Vote Count
59030,Bartholomew,Bryce,Canadian Action,293
59030,Davies,Libby,N.D.P.,23927
59030,Ellis,Christine,Green Party,2536
59030,Haggard,David Carl,Liberal,9907
59030,Pagtakhan,Elizabeth M.,Conservative,5631