Electoral District Number,Sur Name,First Name,Party,Vote Count
59034,Boylan,Charles,Marxist-Leninist,202
59034,Dosanjh,Ujjal,Liberal,20991
59034,Meslo,Bev,N.D.P.,9205
59034,Perry,Doug,Green Party,1435
59034,Sablok,Tarlok,Conservative,11856