Electoral District Number,Sur Name,First Name,Party,Vote Count
47012,Arthur,Allan,NDP-New Democratic Party,5461
47012,Borrowman,Gerald,Liberal,1236
47012,Deptuck,Bob,Green Party,898
47012,Komarnicki,Ed,Conservative,21598