Electoral District Number,Sur Name,First Name,Party,Vote Count
48015,Burkhart,Dave,NDP-New Democratic Party,8045
48015,Johnston,Peter,Green Party,4072
48015,Rathgeber,Brent,Conservative,31436
48015,Sleiman,Sam,Liberal,7441