Electoral District Number,Sur Name,First Name,Party,Vote Count
48001,Jean,Brian,Conservative,17160
48001,Malcolm,John,FPNP,233
48001,Reimer,Shawn,Independent,350
48001,Richards,Dylan,Green Party,1628
48001,Strydhorst,Jacob,Christian Heritage Party,186
48001,Voyageur,Mark,NDP-New Democratic Party,3300
48001,Webb,John,Liberal,2710