Electoral District Number,Sur Name,First Name,Party,Vote Count
48021,Botter,Bev,Liberal,2639
48021,Dodd,Kevin,Green Party,2338
48021,Shock,Dean,Independent,1551
48021,Payne,LaVar,Conservative,26950
48021,Regehr,Wally,NDP-New Democratic Party,4187
48021,Vandestroet,Frans,Christian Heritage Party,363