Electoral District Number,Sur Name,First Name,Party,Vote Count
48024,Benoit,Leon,Conservative,34493
48024,Campbell,Adam,Liberal,2345
48024,Munsey,William,Green Party,3676
48024,Stone,Ray,NDP-New Democratic Party,4230