Electoral District Number,Sur Name,First Name,Party,Vote Count
48028,Brade,Melissa,CAP,408
48028,El-Rafih,Mohamed,Liberal,1489
48028,Kuzminski,Ken,NDP-New Democratic Party,4587
48028,Merrifield,Rob,Conservative,26863
48028,Schaefer,Monika,Green Party,3437
48028,Wierenga,John M.,Christian Heritage Party,606