Electoral District Number,Sur Name,First Name,Party,Vote Count
11002,Byrne,Joe,NDP-New Democratic Party,4632
11002,Casey,Sean,Liberal,7292
11002,Judson,Baird,CHP Canada,87
11002,Knockwood,Eliza,Green Party,417
11002,Profit,Donna,Conservative,6040