Electoral District Number,Sur Name,First Name,Party,Vote Count
12011,Bull,Arthur,N.D.P.,8512
12011,Granger,Matthew,Green Party,1040
12011,Griffiths,Ken,Independent,682
12011,Kerr,Greg,Conservative,17222
12011,Thibault,Robert,Liberal,17734