Electoral District Number,Sur Name,First Name,Party,Vote Count
47001,Kratchmer,Norbert,Green Party,637
47001,LaPlante,Dominic,Liberal,3901
47001,Pankiw,Jim,No Affiliation,4396
47001,Ritz,Gerry,Conservative,16491
47001,Stephan,Harold,Christian Heritage Party,306
47001,Wyatt,Elgin Wayne,N.D.P.,4829