Electoral District Number,Sur Name,First Name,Party,Vote Count
47002,Barron,Herta,Liberal,6841
47002,Fornssler,Mike,Green Party,1334
47002,Kossick,Don,N.D.P.,12376
47002,Kristtorn,Sonje,Communist,94
47002,Krozser,D.-Jay,Independent,412
47002,Yelich,Lynne,Conservative,19430