Electoral District Number,Sur Name,First Name,Party,Vote Count
59020,Albas,Dan,Conservative,28525
59020,Bouchard,Dan,Green Party,5005
59020,Finnis,David,NDP-New Democratic Party,12853
59020,Kidder,John,Liberal,5815
59020,Wittel,Dietrich,Independent,1040