Electoral District Number,Sur Name,First Name,Party,Vote Count
59025,Benham,Roger,Green Party,1102
59025,Braun,Maggie,CAP,165
59025,Cullen,Nathan Paul,NDP-New Democratic Party,19431
59025,Harmon,Clay,Conservative,12117
59025,Taylor,Rod,CHP Canada,1038
59025,Warwick,Kyle,Liberal,1268