Electoral District Number,Sur Name,First Name,Party,Vote Count
59033,Elkins,Victor Edward,NDP-New Democratic Party,7499
59033,Meredith,Deborah,Conservative,20984
59033,Murray,Joyce,Liberal,22903
59033,Shaw,Laura-Leah,Green Party,2922