Electoral District Number,Sur Name,First Name,Party,Vote Count
35026,Hibma,Dick,Green Party,13095
35026,Kidd,Joel,Christian Heritage Party,599
35026,McIllwraith,Jill,NDP-New Democratic Party,4640
35026,Miller,Larry,Conservative,22975
35026,Noble,Thom,Liberal,6892