Electoral District Number,Sur Name,First Name,Party,Vote Count
35017,Carmichael,John,Conservative,19441
35017,Holliday,Catherine,Communist,162
35017,Oliphant,Rob,Liberal,22212
35017,Sparrow,David,NDP-New Democratic Party,5102
35017,Wilcock,Georgina,Green Party,3155