Electoral District Number,Sur Name,First Name,Party,Vote Count
35020,Arlow,Will,CAP,96
35020,Burgon,Noel,Green Party,3241
35020,Dolby,Ryan,NDP-New Democratic Party,9135
35020,Hiemstra,Carl,Christian Heritage Party,619
35020,Preston,Joe,Conservative,22970
35020,van Bommel,Suzanne,Liberal,11169
35020,van Holst,Michael,Independent,243