Electoral District Number,Sur Name,First Name,Party,Vote Count
35023,Boyer,Patrick,Conservative,17793
35023,Corail,Dave,Green Party,3562
35023,Ignatieff,Michael,Liberal,23536
35023,McHugh-Russell,Liam,NDP-New Democratic Party,5950
35023,Murray,Janice,Marxist-Leninist,181