Electoral District Number,Sur Name,First Name,Party,Vote Count
35027,Bender,Philip,Libertarian,159
35027,Couto,Manuel,Marxist-Leninist,29
35027,Garvie,Drew,Communist,77
35027,King,Tom,NDP-New Democratic Party,9713
35027,Klevering,Kornelis,Radical Marijuana,166
35027,Kovach,Gloria,Conservative,17186
35027,Levenson,Karen,AAEV Party of Canada,73
35027,Nagy,Mike,Green Party,12454
35027,Turmel,John,Independent,58
35027,Valeriote,Frank,Liberal,18974