Electoral District Number,Sur Name,First Name,Party,Vote Count
35028,Elgersma,Steven,Christian Heritage Party,501
35028,Finley,Diane,Conservative,19657
35028,Hoskins,Eric,Liberal,15577
35028,Johnston,Stephana,Green Party,2041
35028,McHale,Gary,Independent,4821
35028,Nichols,Ian,NDP-New Democratic Party,5549