Electoral District Number,Sur Name,First Name,Party,Vote Count
35033,Anderson,Terry,Conservative,16010
35033,Banham,Tyler,Liberal,10531
35033,Brotherston,Stephen,Green Party,2884
35033,Charlton,Chris,NDP-New Democratic Party,22796