Electoral District Number,Sur Name,First Name,Party,Vote Count
35045,Aitken,Leonard,Green Party,1921
35045,Fletcher,Duncan,Conservative,13855
35045,Hawkins,Nadine,NDP-New Democratic Party,4682
35045,McCallum,John,Liberal,25296
35045,Small,Allen,Libertarian,225