Electoral District Number,Sur Name,First Name,Party,Vote Count
35052,Brown,Phil,NDP-New Democratic Party,6946
35052,Gadzala,Lori,Green Party,7880
35052,Mahfouz,Ed,Liberal,16743
35052,Poilievre,Pierre,Conservative,39921