Electoral District Number,Sur Name,First Name,Party,Vote Count
35060,Bilek,Michelle,NDP-New Democratic Party,4143
35060,Brown,M.A. Bonnie,Liberal,20528
35060,Poland,Blake,Green Party,4681
35060,Young,Terence,Conservative,26011