Electoral District Number,Sur Name,First Name,Party,Vote Count
35066,Baird,John,Conservative,25109
35066,Coates,Frances,Green Party,3558
35066,McDonald,Alex,Communist,150
35066,Page,David,Independent,414
35066,Pratt,David,Liberal,20161
35066,Rivier,Marlene,NDP-New Democratic Party,6432