Electoral District Number,Sur Name,First Name,Party,Vote Count
35064,Brisson,Jean-Serge,Libertarian,244
35064,De Sarkar,Hijal,NDP-New Democratic Party,4920
35064,Ghanem,Qais,Green Party,3939
35064,Gullon,Al,PC Party,620
35064,McGuinty,David,Liberal,29035
35064,Salibi,Elie,Conservative,19417