Electoral District Number,Sur Name,First Name,Party,Vote Count
35079,Bichler,Paul,Liberal,6870
35079,Macmichael,Luke,Green Party,1774
35079,Martin,Tony,NDP-New Democratic Party,16572
35079,McLeod,Cory,FPNP,235
35079,Ross,Cameron,Conservative,15461
35079,Taffarel,Mike,Marxist-Leninist,81