Electoral District Number,Sur Name,First Name,Party,Vote Count
35086,Banigan,Richard,NDP-New Democratic Party,6202
35086,Clarke,Steve,Liberal,14670
35086,Powell,Valerie,Green Party,5821
35086,Stanton,Bruce,Conservative,26328