Electoral District Number,Sur Name,First Name,Party,Vote Count
35088,Harris,Gordon,Green Party,3330
35088,Labelle,Gerry,Conservative,11073
35088,Marleau,Diane,Liberal,12969
35088,Morin,Will,FPNP,397
35088,Popescu,J. David,Independent,80
35088,Thibeault,Glenn,NDP-New Democratic Party,15094