Electoral District Number,Sur Name,First Name,Party,Vote Count
12003,Campbell,George,Christian Heritage Party,219
12003,Pye,Brad,NDP-New Democratic Party,12793
12003,Savage,Michael John,Liberal,16016
12003,Shreenan,Paul,Green Party,2417
12003,Webber,Wanda,Conservative,9109