Electoral District Number,Sur Name,First Name,Party,Vote Count
12009,Earle,Gordon S.,NDP-New Democratic Party,13456
12009,Keddy,Gerald,Conservative,14388
12009,Larkin,Joe,Christian Heritage Party,513
12009,Oddy,Michael,Green Party,2090
12009,Smith,Bill,Liberal,9536