Electoral District Number,Sur Name,First Name,Party,Vote Count
35010,Baetz,Elaine,Marxist-Leninist,140
35010,Brierley,Alyssa,Liberal,14154
35010,Laird,David,NDP-New Democratic Party,11449
35010,Mayberry,Graham Reid,Green Party,2151
35010,Wallace,Mike,Conservative,32958