Electoral District Number,Sur Name,First Name,Party,Vote Count
35037,Corbiere,Mark,Marxist-Leninist,92
35037,Redman,Karen,Liberal,15592
35037,Rimmer,Alan,Independent,199
35037,Suter,Martin,Communist,93
35037,Thurley,Peter,NDP-New Democratic Party,10742
35037,Williston,Byron,Green Party,1972
35037,Woodworth,Stephen,Conservative,21119