Electoral District Number,Sur Name,First Name,Party,Vote Count
35046,Hill,Joe,NDP-New Democratic Party,12299
35046,Janssens,Mike,CHP Canada,413
35046,Johnston,Jim,Green Party,1701
35046,Shipley,Bev,Conservative,29546
35046,Stucke,Gayle,Liberal,7264