Electoral District Number,Sur Name,First Name,Party,Vote Count
35050,Ambler,Stella,Conservative,22991
35050,Barrett,Richard,No Affiliation,194
35050,Kalbouneh,Farah,NDP-New Democratic Party,6354
35050,Simas,Paul,Green Party,1532
35050,Szabo,Paul,Liberal,18393