Electoral District Number,Sur Name,First Name,Party,Vote Count
35080,Karygiannis,Jim,Liberal,18498
35080,Patchell,Nancy,NDP-New Democratic Party,7376
35080,Thompson,Pauline,Green Party,946
35080,Tsai,Harry,Conservative,13930