Electoral District Number,Sur Name,First Name,Party,Vote Count
35098,Bouteiller,Brent,Green Party,3527
35098,Chong,Michael,Conservative,35132
35098,Peters,Barry,Liberal,9034
35098,Streutker,Jeffrey,CHP Canada,316
35098,Zavarella,Anastasia,NDP-New Democratic Party,7146