Electoral District Number,Sur Name,First Name,Party,Vote Count
35102,Deveau,Melanie,Liberal,4327
35102,Fox,Alishia,Green Party,1096
35102,Lumley,Lisa,Conservative,12577
35102,Masse,Brian,NDP-New Democratic Party,21592
35102,Villamizar,Margaret,Marxist-Leninist,153