Electoral District Number,Sur Name,First Name,Party,Vote Count
35105,Day,Sonny,Green Party,975
35105,Saweczko,Jilian,Conservative,8559
35105,Sullivan,Mike,NDP-New Democratic Party,14122
35105,Tonks,Alan,Liberal,11542