Electoral District Number,Sur Name,First Name,Party,Vote Count
35106,Manfrini,Giulio,NDP-New Democratic Party,7721
35106,Otura,George Okoth,CHP Canada,231
35106,Sgro,Judy,Liberal,13030
35106,Smitherman,Arthur,CAP,170
35106,Tibbin,Unblind Kheper Keseb,Green Party,450
35106,Walters,Audrey,Conservative,6122