Electoral District Number,Sur Name,First Name,Party,Vote Count
35043,Fontana,Joe,Liberal,24109
35043,Maynard,Stephen,N.D.P.,14271
35043,Mazzilli,John,Conservative,17968
35043,Mondaca,Margaret,Marxist-Leninist,160
35043,Morley,Rod,PC Party,283
35043,Smith,Stuart,Green Party,3300