Electoral District Number,Sur Name,First Name,Party,Vote Count
35044,Barber,Gina,N.D.P.,13056
35044,Barnes,Sue,Liberal,23019
35044,Gretzky,Al,Conservative,21690
35044,Hunter,Steve,PC Party,328
35044,Jarabek,Monica,Green Party,2900
35044,Villamizar,Margaret,Marxist-Leninist,59