Electoral District Number,Sur Name,First Name,Party,Vote Count
35061,Carrie,Colin,Conservative,20657
35061,Gershuny,David,Marxist-Leninist,91
35061,Jobse,Adam,Green Party,2019
35061,Parkes,Louise,Liberal,12831
35061,Ryan,Sid,N.D.P.,17905