Electoral District Number,Sur Name,First Name,Party,Vote Count
35069,Boulding,Jo-Anne,N.D.P.,5472
35069,Clement,Tony,Conservative,18513
35069,Hodgson,Glen,Green Party,3701
35069,Mitchell,Andy,Liberal,18485