Electoral District Number,Sur Name,First Name,Party,Vote Count
35074,Gallant,Cheryl,Conservative,29923
35074,Kelly,Paul,Independent,1304
35074,Lindsay,Don,Liberal,12532
35074,McLeod,Gordon Scott,Green Party,1605
35074,McSheffrey,Sue,N.D.P.,6509