Electoral District Number,Sur Name,First Name,Party,Vote Count
35100,Boseovski,Jovan,Conservative,16254
35100,Carnegie,Rochelle,N.D.P.,6297
35100,Peterson,Jim,Liberal,30623
35100,Vettese,Sharolyn,Green Party,2268