Electoral District Number,Sur Name,First Name,Party,Vote Count
35102,Bishop,Jillana,Green Party,1444
35102,Keller,Werner,Liberal,12110
35102,Masse,Brian,N.D.P.,23608
35102,Schnurr,Chris,PC Party,614
35102,Teshuba,Al,Conservative,9592
35102,Villamizar,Enver,Marxist-Leninist,108
35102,Zaidi,Habib,Independent,224