Electoral District Number,Sur Name,First Name,Party,Vote Count
35105,Cimesa,Dragan,Independent,189
35105,De Angelis-Pater,Maria,Green Party,1506
35105,Ferreira,Paul,N.D.P.,8525
35105,Halicki,Steve,Conservative,6991
35105,Tonks,Alan,Liberal,22871