Electoral District Number,Sur Name,First Name,Party,Vote Count
48008,Christie,Kelly,Green Party,2991
48008,Harper,Stephen J,Conservative,42998
48008,Heather,Larry R.,Independent,303
48008,Heffernan,Holly,NDP-New Democratic Party,6823
48008,Lamontagne,Marlene,Liberal,4121