Electoral District Number,Sur Name,First Name,Party,Vote Count
48006,Hamilton,William,Green Party,4889
48006,Montgomery,Donna Marlis,NDP-New Democratic Party,7314
48006,Pollock,Jennifer,Liberal,8631
48006,Richardson,Lee,Conservative,28401