Electoral District Number,Sur Name,First Name,Party,Vote Count
48006,Grover,Trevor,Canadian Action,250
48006,Johnson,John N.,Green Party,6372
48006,Kim,Heesung,Liberal,10464
48006,Pincott,Brian,N.D.P.,7227
48006,Richardson,Lee,Conservative,30213